getParameterNames 3
ArrayList 4
294 5
Enumeration 6
+ 7
new 8
metadata 9
never 10
equals 11
106 12
getCookies 13
replace 14
call 15
V 16
91 17
93 18
95 19
94 20
96 21
CallableStatement 22
length 23
isEmpty 24
gate 25
v91 26
escapeHtml 27
safe 28
PrintStream 29
println 30
>= 31
another 32
esapi 33
B 34
HttpServletResponse 35
- 36
v89 37
v88 38
v85 39
v84 40
v87 41
v81 42
v80 43
v83 44
v82 45
WHERE 46
bar 47
C 48
$ 49
catch 50
Column1 51
Column2 52
hasMoreElements 53
io 54
if 55
v69 56
v68 57
split 58
the 59
v92 60
v93 61
v90 62
59 63
58 64
55 65
54 66
56 67
57 68
System 69
Application 70
foo 71
SafeStuff 72
Thing 73
properties 74
barbarians 75
encoder 76
uncle 77
Z 78
getProperty 79
encodeForHTML 80
createThing 81
sql 82
String 83
:: 84
0 85
p 86
testcode 87
getParameter 88
[ 89
encode 90
substring 91
1 92
doSomething 93
switch 94
getConstructor 95
execute 96
happen 97
prepareStatement 98
getSqlConnection 99
goto 100
org 101
thing 102
1007 103
1003 104
SET 105
2 106
a 107
bobs 108
11 109
getTheParameter 110
200 111
] 112
Test 113
get 114
PASS 115
nextElement 116
toString 117
s 118
60 119
62 120
65 121
69 122
v23 123
v22 124
v21 125
v20 126
v27 127
v24 128
v28 129
Chars 130
HttpServletRequest 131
I 132
CHECKCAST 133
USERNAME= 134
param 135
t 136
getParameterMap 137
your 138
Cookie 139
ThingInterface 140
Error 141
v30 142
v31 143
v34 144
v35 145
v39 146
bob 147
v26 148
v25 149
v29 150
getClassLoader 151
getResourceAsStream 152
prepareCall 153
getTheValue 154
196 155
Primordial 156
sun 157
v58 158
Thing2 159
Thing1 160
ClassLoader 161
addBatch 162
reflect 163
21 164
22 165
23 166
return 167
always 168
executeQuery 169
Class 170
Constructor 171
put 172
w 173
misc 174
getHeaderNames 175
printStackTrace 176
null 177
append 178
73 179
79 180
exc 181
v18 182
v19 183
HashMap 184
v12 185
v13 186
v10 187
v11 188
v16 189
v17 190
v14 191
v15 192
find 193
PHI 194
remove 195
moresafe 196
v32 197
getName 198
reverse 199
load 200
java 201
Properties 202
charAt 203
StringBuilder 204
p0 205
p1 206
<= 207
doPost 208
user 209
Statement 210
getQueryString 211
v67 212
v66 213
v65 214
v64 215
v63 216
v62 217
v61 218
v60 219
verifyUserPassw 220
prop 221
InputStream 222
Map 223
USERS 224
SeparateClassRequest 225
at 226
Object 227
Encoder 228
ThingFactory 229
v78 230
v79 231
v74 232
v75 233
v76 234
v77 235
v70 236
v71 237
v72 238
v73 239
39 240
38 241
33 242
32 243
31 244
30 245
37 246
36 247
35 248
34 249
helpers 250
{ 251
from 252
benchmark 253
Connection 254
this 255
getSqlStatement 256
ABC 257
Value 258
Can 259
89 260
86 261
87 262
out 263
' 264
This 265
UPDATE 266
v41 267
v40 268
v43 269
v42 270
v45 271
v44 272
v47 273
v46 274
v49 275
v48 276
Exception 277
SELECT 278
= 279
PreparedStatement 280
request 281
BASE64Decoder 282
} 283
decodeBuffer 284
( 285
should 286
== 287
126 288
h 289
constructing 290
key 291
v33 292
v36 293
v37 294
v38 295
username 296
getValue 297
v56 298
v57 299
v54 300
v55 301
v52 302
v53 303
v50 304
v51 305
v59 306
) 307
BASE64Encoder 308
v2 309
v3 310
v4 311
v5 312
v6 313
v7 314
v8 315
v9 316
i 317
executeUpdate 318
getHeaders 319
add 320
password 321
getBytes 322
htmlEscape 323
!= 324
* 325
owasp 326
getParameterValues 327
forName 328
ResultSet 329
44 330
42 331
43 332
40 333
41 334
getHeader 335