UNK	0.138266 0.243037 0.0939848 -0.259735 -0.406049 -0.196578 -0.463861 0.349195 0.499856 0.190063 -0.0765417 0.114273
variable	0.212547 -0.0173869 0.0755687 -0.00342152 0.298107 -0.123071 0.0472354 -0.861621 -0.0572076 -0.120606 -0.232766 0.167821
::	0.224775 0.0293245 0.348405 0.245672 0.0843548 -0.167483 -0.252367 0.151488 -0.415608 -0.620902 -0.279611 0.0929539
=	-0.389282 -0.200908 -0.173325 0.196859 -0.202686 -0.0168765 0.0593473 0.146264 -0.51414 0.0728871 0.0437136 -0.633605
)	0.497814 -0.129465 -0.367602 0.409753 0.248905 0.364345 -0.295417 -0.00656984 -0.164461 -0.15139 -0.026396 -0.315774
(	-0.105698 -0.415465 0.317469 -0.0243194 0.565785 -0.297993 0.182409 0.320385 -0.0591551 -0.290365 0.214574 -0.190139
String	0.222354 -0.687548 0.0655435 -0.0674159 -0.142113 -0.121451 -0.519901 0.0144009 0.0456883 -0.318068 0.235339 -0.070038
Builder	0.0390034 -0.271832 -0.146104 -0.0193458 0.317076 0.262837 -0.0059243 -0.0801611 -0.24972 -0.636341 0.373837 -0.346035
STRING	0.51549 -0.104887 -0.3846 0.410319 0.208503 -0.441513 0.121684 -0.345903 -0.135351 0.117288 -0.0230769 0.0389567
ARBITRARY	-0.461886 -0.304922 -0.15554 0.182324 0.0693446 -0.341233 -0.24159 -0.410765 0.340177 -0.0374467 0.185298 -0.369391
1	-0.17441 -0.482997 0.0903885 0.327656 -0.0599479 -0.0905139 -0.515679 -0.158485 -0.434646 0.318597 0.0682496 0.151191
append	-0.0941679 -0.0576182 -0.379977 0.0602051 -0.106408 0.00153433 -0.581261 -0.403607 -0.00100925 0.00104461 -0.175177 -0.545003
do	-0.157231 -0.181017 -0.343589 0.469568 0.418333 -0.119422 0.535777 -0.143077 -0.0394434 -0.0445847 0.087737 -0.309727
org	0.228783 0.123434 0.100636 0.628738 0.152871 0.0843023 -0.226994 0.182201 -0.0968056 -0.334795 0.106406 -0.528206
owasp	-0.222503 -0.266539 0.164085 0.363856 0.247636 -0.118869 -0.459595 -0.360466 0.340064 -0.318204 -0.266319 -0.125275
benchmark	-0.259143 0.112127 -0.114637 0.491416 0.0667742 -0.347811 -0.000938156 -0.149398 0.207932 -0.511546 0.173305 -0.427715
get	0.0764927 -0.237951 -0.369145 -0.14415 -0.143713 -0.410387 0.459971 -0.41072 -0.0193659 -0.297911 -0.323957 -0.130656
new	-0.174624 -0.0422238 -0.0707595 0.198408 0.146125 0.0884481 0.204206 -0.369222 -0.115405 -0.812235 0.0871843 0.188428
Object	-0.0211784 -0.468694 -0.326191 0.454438 0.02355 -0.0432563 -0.184182 0.0282232 -0.0357246 -0.285909 0.34267 -0.478931
[	0.298567 -0.519033 0.306363 0.29258 0.0667969 0.383367 -0.00984307 -0.275107 -0.330979 -0.0851168 -0.027413 -0.342411
0	-0.097 -0.275287 -0.160894 -0.0446205 0.0685395 -0.148197 -0.70002 0.0396779 -0.602958 0.0196187 0.0372441 0.0577765
null	-0.12838 0.0632387 -0.145505 0.278308 0.429606 -0.0096733 -0.732038 -0.202659 -0.062504 -0.171808 0.270026 0.11379
Something	-0.0873556 -0.534974 -0.24965 -0.053597 -0.166162 -0.489833 -0.320505 -0.406177 -0.0382713 0.133796 0.119457 -0.268494
Servlet	-0.00426801 -0.0939138 -0.294204 -0.00820543 0.339773 -0.0473923 -0.243471 -0.114492 0.344664 -0.532828 -0.21159 -0.516712
Http	0.122063 -0.416239 -0.562024 0.0043487 0.0670472 -0.0478647 -0.237283 -0.226946 0.215024 -0.512184 -0.26519 -0.049695
java	-0.0066428 -0.116471 -0.511823 0.257034 0.471596 -0.0689896 -0.318003 -0.194324 0.0528779 -0.077334 0.525378 -0.0866812
Statement	0.164539 -0.277895 -0.439021 -0.079893 -0.231578 -0.452152 -0.0338118 -0.104215 -0.412926 -0.168744 0.475633 -0.0359883
9	-0.348692 -0.298335 -0.381011 0.459577 0.252769 -0.203481 -0.285439 0.0878041 -0.282071 -0.104143 0.247554 0.294711
4	-0.380621 -0.46933 -0.38378 0.169485 0.475598 -0.248225 -0.188372 0.0816038 -0.0958087 -0.0988556 0.229134 0.239661
2	-0.211881 -0.790829 -0.191063 0.142357 0.125591 -0.114495 -0.244063 0.0345545 -0.199717 0.252047 -0.270715 0.0811215
Z	-0.416698 -0.0708676 -0.359756 0.343862 0.481168 0.254152 -0.116863 -0.0690475 -0.140374 -0.336922 0.354804 -0.00534322
to	0.152534 0.00356736 0.132773 -0.0280773 0.436477 0.0659945 -0.157021 -0.120132 -0.298257 -0.0731089 0.00831418 -0.793711
sql	0.127335 0.0892338 0.0222389 0.0565887 0.228713 -0.834416 -0.134929 -0.0606122 -0.247082 -0.163404 0.332818 -0.0562922
I	-0.159972 -0.365426 -0.341835 0.287994 -0.249168 0.0457337 -0.307922 -0.164786 -0.229224 -0.551695 0.28935 -0.119581
7	-0.38918 -0.646468 -0.0863457 -0.0234529 0.378106 -0.122307 -0.242551 -0.115274 -0.0577766 -0.236681 0.274298 0.240782
19	-0.300777 -0.516483 -0.249771 0.508528 0.0615258 -0.340841 -0.150427 0.125248 -0.049783 -0.256724 0.104052 0.290354
16	-0.48651 -0.339289 -0.202904 0.454408 -0.00840582 -0.397034 -0.205497 0.0511309 -0.157425 -0.186912 0.260086 0.265744
21	0.0289184 -0.401078 -0.38438 0.347514 0.140988 -0.220622 -0.0159607 0.0266353 -0.0886431 -0.440568 0.408757 0.362256
23	-0.11769 -0.705282 -0.25111 0.44183 0.057528 -0.149682 -0.0433773 0.0893715 -0.0738018 -0.294172 0.129581 0.293423
25	-0.162549 -0.632584 -0.0813186 0.290971 -0.34154 -0.457157 -0.00985951 0.101132 -0.132311 -0.207976 -0.224743 0.186818
]	0.164733 -0.321052 -0.0801385 0.461875 -0.189022 0.210364 0.099073 -0.493091 -0.331789 -0.308138 0.317087 0.107352
p	0.321194 -0.378006 -0.07007 0.450507 0.00596734 -0.563655 -0.0726845 0.0165461 -0.323921 0.177535 -0.141396 0.257572
Thing	0.315052 -0.0355965 -0.504652 0.504615 -0.344375 -0.388874 0.0396608 -0.0390943 -0.0115943 -0.269892 0.207708 -0.0335846
Request	0.0871881 -0.596994 -0.120547 0.0741929 0.0264988 -0.185437 0.131803 0.143679 0.132077 -0.550233 -0.408275 -0.236572
$	0.342234 -0.270382 0.242361 0.523857 -0.00573865 -0.492538 0.120939 0.145911 -0.209016 0.023827 0.136099 -0.367807
6	-0.699769 -0.345592 -0.202075 0.198952 0.302593 -0.0195985 -0.309242 -0.0702264 -0.143313 -0.268212 0.0205058 0.158325
13	-0.374717 -0.182323 -0.128035 0.719123 0.0936453 -0.111573 -0.0889373 -0.0145231 -0.0868832 -0.329807 0.322966 0.206997
12	-0.332686 -0.442725 -0.0349707 0.614643 -0.045797 -0.168603 -0.0781403 -0.0278078 -0.0635644 -0.303256 0.340279 0.255161
Class	-0.307139 -0.262287 -0.253657 -0.149347 -0.204792 0.14272 -0.461908 -0.0822513 0.0350543 -0.61353 0.0328133 -0.29844
helpers	-0.392558 -0.339915 0.40904 0.133932 0.107435 -0.320749 -0.340293 -0.297613 0.188553 -0.139888 -0.0981625 -0.401937
14	-0.498199 -0.429694 -0.0509181 0.368368 0.0992481 -0.206713 -0.229712 -0.0312784 -0.14842 -0.373116 0.262303 0.304139
26	-0.0826043 -0.579615 -0.2547 0.313262 0.0869423 -0.314492 -0.0800108 0.08244 -0.271733 -0.231852 0.312518 0.386386
27	-0.210088 -0.48221 -0.10718 0.267002 0.0949289 -0.149372 -0.10186 -0.0168612 -0.340785 -0.410454 0.400774 0.391598
Post	-0.0948967 -0.520226 -0.234783 -0.0676515 -0.152773 -0.477191 -0.321834 -0.43596 -0.0326502 0.117616 0.129142 -0.290506
Response	0.205964 -0.485501 -0.0876205 0.0690744 0.515692 -0.291521 -0.117623 0.152137 -0.180525 -0.219433 -0.481615 0.093929
Sql	-0.347756 -0.108237 -0.250913 -0.183626 0.383325 -0.708132 -0.0939174 -0.110732 -0.138675 -0.0782968 -0.139189 -0.23763
24	0.00648974 -0.289059 -0.353261 0.546751 -0.0710653 -0.373088 -0.11921 0.125146 -0.192008 -0.334097 0.207939 0.356131
28	-0.284379 -0.569677 -0.175997 0.0943644 -0.061793 -0.306087 -0.154882 -0.041446 -0.327717 -0.257181 0.357804 0.36047
Connection	0.0602363 -0.275731 -0.597291 -0.17535 -0.160242 -0.254286 -0.0791271 -0.173657 -0.395389 -0.30307 0.368794 -0.147954
N3P	-0.233199 -0.288987 -0.368985 0.565775 0.289949 0.18102 -0.319562 0.0118673 -0.297407 0.0786655 -0.243187 0.181593
8	-0.515711 -0.538364 -0.194129 0.0964641 0.28707 -0.10771 -0.373011 -0.0756017 -0.085845 -0.123021 0.273328 0.247263
18	-0.320013 -0.528003 -0.354249 0.506908 0.0695351 -0.294782 -0.148727 0.0891387 0.064345 -0.173737 0.165189 0.230103
34	-0.295081 -0.580325 -0.327283 0.0349048 0.0308985 -0.0459708 0.0789416 -0.131629 -0.139325 -0.48474 0.351786 0.251104
return	0.0638325 -0.119763 0.225233 0.128114 0.383607 -0.0670545 0.000155095 0.0703937 -0.412079 -0.215493 0.437766 -0.591564
5	-0.62659 -0.419781 -0.19345 0.456722 0.319871 -0.0846389 -0.233652 0.0703197 -0.04784 -0.0786528 -0.0462143 0.0742992
PHI	-0.0260864 -0.0381888 -0.116443 0.499911 -0.146765 -0.239068 -0.170071 0.247131 -0.317075 -0.607502 0.0360409 -0.307905
10	-0.468046 -0.458112 -0.23315 0.345746 0.0563443 -0.277592 -0.328881 0.0251213 -0.18293 -0.0960754 0.291176 0.284014
3	-0.216599 -0.385372 -0.20333 0.180417 0.413536 -0.345019 -0.38306 0.118457 -0.208444 -0.00872776 0.419473 0.245723
15	-0.504498 -0.500102 -0.105058 0.303048 0.0934992 -0.357261 -0.278833 -0.0323769 -0.00111637 -0.179628 0.291208 0.245481
30	-0.136379 -0.507751 -0.344583 0.360804 -0.189055 -0.324119 -0.139182 0.072439 -0.201581 -0.341043 0.150391 0.360133
if	-0.0384383 0.0428275 -0.306198 0.100442 0.0725354 -0.543758 -0.553601 -0.163013 -0.0188676 -0.104693 -0.49644 -0.0330534
goto	-0.18989 -0.305893 -0.0658979 -0.0698778 0.501177 0.204947 -0.320827 -0.0227694 -0.343834 -0.17474 -0.558982 -0.0574356
'	0.399321 -0.317802 -0.142324 -0.0304955 0.380207 -0.363356 -0.462477 0.273237 -0.288592 -0.0998073 -0.222613 -0.10211
32	-0.158213 -0.528214 -0.311067 0.32722 0.0425139 -0.0900122 0.0250697 0.0302937 -0.190435 -0.463335 0.321278 0.355672
22	0.00951077 -0.509094 -0.258394 0.278552 0.228011 -0.246969 -0.0174128 0.0186503 -0.183618 -0.33349 0.446974 0.371515
20	-0.316785 -0.223994 -0.11455 0.696799 0.0273568 -0.245242 -0.0708128 0.0845065 -0.152929 -0.378114 0.211804 0.257988
31	-0.133869 -0.484781 -0.379032 0.379317 -0.0357374 -0.297764 -0.131878 0.112282 -0.269095 -0.261731 0.21311 0.39147
29	-0.183826 -0.65245 -0.245864 0.30591 -0.120866 -0.340291 -0.179563 0.0296836 -0.181557 -0.244184 0.0815968 0.351723
length	0.319098 -0.0669827 -0.18013 0.528819 0.219986 -0.0477342 -0.467221 -0.0574031 0.00430633 0.248117 -0.267361 -0.419842
17	-0.449983 -0.430485 -0.228207 0.460612 -0.0256292 -0.323458 -0.208623 0.0189255 -0.0526133 -0.24087 0.266137 0.259185
39	-0.306086 -0.703763 -0.208382 0.019142 0.108934 0.0152609 -0.0162897 -0.139136 -0.0053482 -0.452264 0.271168 0.239608
Test	-0.438077 -0.21904 -0.215206 0.0614209 -0.10881 -0.524089 -0.0436886 -0.449575 -0.0114753 -0.126066 0.263866 -0.365841
V	-0.062783 -0.489417 -0.38273 0.410002 0.0764767 -0.0413369 -0.238493 -0.00177024 -0.120275 -0.37948 0.30502 -0.354961
36	-0.262528 -0.597686 -0.189362 0.336557 -0.135958 -0.0384195 0.029724 -0.0154189 0.048677 -0.568511 0.121224 0.251735
64	-0.275381 -0.206512 0.420881 0.27979 -0.1669 -0.405871 0.13479 -0.245305 -0.359733 -0.261243 0.393974 -0.0478886
35	-0.239276 -0.627095 -0.349428 0.146291 -0.0291963 -0.0104648 -0.0596147 -0.000513386 -0.0524437 -0.542394 0.12134 0.299695
E	0.150955 -0.496981 0.0543876 0.473507 0.0450147 -0.397983 0.0268056 -0.170424 0.42996 0.0223907 -0.193246 -0.300274
misc	0.221879 0.0280721 -0.0629285 0.416235 0.358817 -0.523607 -0.0949545 -0.136636 0.369852 -0.446634 -0.0759145 0.0116063
BAS	-0.163257 -0.0635723 0.20949 0.220039 -0.066558 -0.18646 -0.265099 -0.450296 -0.00441716 -0.331592 0.623073 -0.258007
sun	-0.0137736 -0.276339 0.102973 0.00108038 -0.0533025 0.141597 -0.391192 -0.33976 0.06822 -0.279164 0.443385 -0.58507
33	-0.108067 -0.753395 -0.24798 0.249838 0.0521074 -0.149106 -0.0106157 0.0119188 -0.196809 -0.298153 0.205537 0.318948
41	-0.127986 -0.518477 -0.485288 0.208071 0.0866978 0.0307722 -0.121522 0.00410364 -0.0404627 -0.495454 0.236844 0.330981
Stream	0.239085 -0.437533 -0.0960897 0.147913 -0.43204 -0.542547 -0.218784 0.158925 0.024277 -0.238894 0.0938144 -0.315742
param	-0.206461 -0.114747 -0.00967548 0.0491385 0.0887001 -0.490937 -0.746777 0.0966633 0.0434478 -0.176149 0.303013 -0.0325474
11	-0.455035 -0.602788 -0.174927 0.475932 0.0422054 -0.245845 -0.118649 0.140513 -0.130019 -0.0713433 -0.188509 0.137499
Map	0.369385 -0.205027 -0.325586 0.0823233 -0.148337 -0.162607 -0.156724 0.0726327 0.10816 -0.632592 0.380271 -0.271983
CHECKCAST	-0.296759 -0.582817 -0.253814 0.222455 0.118348 -0.205188 0.14535 -0.247415 -0.319002 -0.359862 0.24892 0.163334
request	-0.184773 -0.120262 -0.369758 0.447215 -0.0329558 -0.402387 -0.524047 0.223073 0.0806882 0.0962687 -0.101208 -0.31822
40	-0.32222 -0.546729 -0.302987 0.0657692 0.034778 0.00523102 0.0701371 -0.165119 -0.041481 -0.531939 0.355715 0.237701
prepare	-0.161918 -0.414094 0.08657 -0.252353 0.490573 0.114563 -0.0398059 -0.580203 -0.106399 0.167798 0.00031659 -0.315672
execute	-0.0180579 -0.472171 -0.130928 -0.316183 0.392651 0.233966 -0.0871109 -0.458111 -0.0119553 0.0864291 -0.0598245 -0.471225
put	0.228655 0.0198798 -0.606233 -0.00844567 -0.0591731 -0.229503 -0.00241724 -0.25605 -0.502444 -0.268184 -0.109642 -0.348707
io	0.157304 -0.0342496 0.11333 0.134057 -0.159812 -0.812302 -0.201156 0.0559276 -0.0466632 -0.408574 0.124412 -0.172375
Hash	0.0970188 -0.494207 0.175587 -0.198525 0.224475 0.124703 -0.289545 -0.431188 -0.376722 -0.0895634 0.404535 -0.163753
print	-0.352032 -0.430965 -0.0535729 0.286985 0.338574 0.107532 0.0963299 -0.12009 0.0529858 -0.0389874 -0.568183 -0.357848
37	-0.241237 -0.682078 -0.261087 0.33484 -0.204694 -0.10312 -0.0574869 0.00430113 -0.0566587 -0.413375 0.0366422 0.254956
43	-0.202769 -0.800247 -0.237444 0.298555 -0.0875306 -0.162058 -0.0303878 0.0796369 -0.0839894 -0.229614 -0.00861375 0.268205
Parameter	0.165728 -0.241917 -0.258711 -0.503067 0.291048 -0.449523 -0.203509 0.0895992 -0.376549 -0.255408 -0.183829 -0.13024
-	-0.336616 -0.00473775 -0.271885 0.472541 0.173419 0.224766 0.132455 0.0201778 -0.628365 -0.201897 0.00624792 -0.235075
add	0.0665374 -0.24768 -0.505843 0.137755 0.482808 -0.165405 -0.157397 -0.173936 -0.0592974 0.327407 -0.255535 -0.409725
38	-0.208456 -0.77268 -0.160533 0.35071 -0.0479479 -0.166014 0.101789 -0.0280269 0.0889974 -0.3258 0.165023 0.168635
Prepared	-0.0230613 -0.161768 -0.309473 -0.0147235 0.577165 -0.359304 -0.118045 -0.343873 -0.263951 0.130043 0.434066 -0.0889512
Encoder	-0.0694003 -0.641363 -0.0337091 0.469434 -0.262006 -0.0513707 -0.0886666 0.0784389 0.253196 -0.165283 -0.119369 -0.413952
45	-0.295694 -0.817114 -0.116414 0.0503349 -0.0583414 -0.0622889 -0.0162973 -0.0451554 -0.237736 -0.313985 0.00212331 0.253194
B	-0.285481 -0.307339 -0.187293 0.0470285 -0.236299 -0.0514656 -0.142157 -0.167354 -0.374659 -0.725373 0.113866 -0.0234708
Decoder	0.0362756 -0.649497 -0.0683764 0.521431 -0.253449 -0.103697 -0.0397626 0.0665764 0.182089 -0.0278884 -0.0244065 -0.429814
<=	0.103957 -0.0265111 -0.463264 0.415107 -0.132586 0.0539434 0.0283491 -0.0541756 -0.476209 -0.343443 -0.360401 -0.320495
create	-0.148617 -0.242845 0.346822 0.719732 0.0943295 -0.392887 -0.000954565 -0.288352 -0.0201873 0.151697 0.103361 0.0114576
System	-0.438499 -0.4312 0.16145 0.0952683 0.0407441 -0.235528 0.0142763 -0.283743 -0.0962849 -0.430004 -0.497452 0.0846351
out	0.141507 -0.316949 -0.170509 0.226813 0.219277 0.028455 -0.131299 -0.0651508 0.157507 -0.00536066 0.228728 -0.807138
Constructor	0.280396 -0.60796 -0.106001 -0.0142152 -0.107896 -0.51417 -0.0956616 0.276017 -0.20943 -0.0655629 -0.251544 -0.259886
Properties	0.0290119 -0.492581 0.0123081 0.210104 -0.197424 0.0386786 -0.32945 -0.179685 -0.203887 -0.233748 0.366881 -0.547833
Factory	-0.48247 -0.0667511 0.240344 0.346939 -0.205681 -0.573422 -0.0819238 -0.0525779 -0.197803 -0.11618 -0.199651 -0.334001
Loader	0.344365 -0.638798 -0.16578 0.0222094 -0.348919 -0.164081 0.0784143 -0.0311458 -0.0536096 -0.458978 -0.106642 -0.254323
>	0.249844 -0.245602 -0.0112151 0.551979 -0.275373 0.0732637 -0.0659068 -0.45965 0.255565 -0.409537 0.167192 -0.121017
ln	0.230528 -0.418895 -0.212482 -0.178223 -0.0253535 -0.272936 -0.0328657 -0.510539 0.0961663 -0.195979 0.492251 -0.260074
Print	0.134018 -0.0588102 -0.409421 0.031256 0.57995 -0.324557 -0.160177 -0.207258 0.234223 -0.363853 0.329315 0.0631609
==	0.224289 0.290769 -0.143792 0.746888 0.247601 -0.0570383 -0.135165 -0.370502 -0.20469 -0.143677 -0.0630181 -0.00405578
The	-0.036095 -0.154641 -0.287651 0.0507702 0.0680589 -0.701324 0.0975986 0.159654 0.0341163 -0.216337 -0.0550286 -0.554045
47	-0.320677 -0.701211 -0.120661 0.172387 -0.204034 -0.140073 -0.0460989 0.00263915 -0.16848 -0.44272 -0.0503539 0.26625
!=	0.119389 0.196737 0.0611608 0.69394 0.0548747 -0.063811 -0.282347 -0.32596 -0.501277 -0.0387201 0.125568 0.0122063
42	-0.288051 -0.753989 -0.162762 0.201556 0.0309812 -0.00271526 -0.0282716 -0.0115444 -0.0543426 -0.415582 0.135945 0.29218
Update	0.340526 -0.570118 -0.352217 -0.292256 0.328277 -0.355214 0.155647 -0.0322171 -0.254148 -0.159838 -0.00521233 0.0128107
List	-0.234514 -0.397542 -0.215031 0.547862 -0.0280922 0.164385 0.0888609 0.0232231 0.141782 -0.546358 -0.186998 -0.225271
Array	0.150751 -0.318261 0.425437 0.127714 0.0459919 0.0346739 -0.520116 -0.187094 -0.0611784 -0.0844097 0.126239 -0.585688
encode	-0.0404143 -0.505682 -0.471298 -0.266941 0.272954 -0.158951 0.160693 -0.322584 -0.173338 0.164903 -0.359885 -0.181287
44	-0.0949569 -0.728192 -0.203824 0.241852 0.159998 0.0460074 0.000227204 -0.00958044 -0.137524 -0.423465 0.192764 0.312219
Name	-0.0623392 -0.175218 -0.254394 -0.229297 -0.0331814 -0.551671 -0.418444 -0.0238248 -0.152025 0.0570556 0.0480737 -0.581667
Separate	0.200871 -0.072996 -0.195338 0.453495 -0.275829 -0.259055 0.13564 -0.365562 0.188622 -0.567047 -0.117401 -0.210664
Value	0.0302069 -0.0843748 -0.379326 -0.317609 -0.0928068 -0.639294 -0.306652 -0.0617295 -0.231325 -0.286412 -0.165736 -0.26275
+	0.0324059 -0.37525 -0.528016 0.251618 -0.261636 0.18594 0.255806 -0.229964 -0.278028 -0.369567 -0.192392 -0.209244
46	-0.273552 -0.68439 -0.1062 0.125851 -0.0842978 -0.183223 0.036916 0.00245464 -0.0979987 -0.5453 -0.0391441 0.281297
Buffer	-0.166112 -0.38161 -0.607109 0.22772 -0.385197 -0.129232 -0.19324 -0.262228 -0.00825043 -0.177212 -0.293879 -0.131616
Bytes	-0.0268997 -0.418502 -0.459794 -0.147097 0.0785573 -0.536264 -0.346041 0.0456479 -0.175139 0.0223993 -0.250379 -0.28573
decode	0.0239511 -0.363581 -0.239756 0.13144 0.530733 -0.0201906 0.0184117 -0.110443 -0.515381 0.251584 -0.390408 -0.128549
Elements	0.40173 -0.0773613 -0.103809 -0.101137 0.0655091 -0.310898 -0.296238 -0.281725 -0.242738 -0.162244 0.560894 -0.379079
More	-0.088602 -0.519652 -0.0210821 -0.25094 0.456379 -0.322422 -0.332769 -0.207801 0.363652 -0.206267 0.0538732 -0.121866
next	0.10719 0.224307 -0.263086 0.168373 0.470099 -0.413332 -0.10304 0.148068 -0.220771 -0.0273974 0.221708 -0.56357
Enumeration	-0.0768214 -0.538759 -0.321456 0.388567 -0.0178534 -0.108016 -0.383129 0.00484926 -0.197873 -0.274642 0.302538 -0.290878
Element	-0.106184 -0.317371 -0.361719 -0.384707 0.363999 -0.130561 -0.526834 -0.378188 -0.0999413 -0.152479 0.0672228 -0.0358092
has	0.175093 0.217345 -0.214704 0.173904 0.307697 -0.398361 0.0153656 -0.00877307 -0.33488 -0.0296063 0.409764 -0.557812
split	0.311024 -0.59476 0.0271824 -0.015293 0.209187 0.0787996 -0.0462447 -0.134919 -0.2453 0.153869 -0.415031 -0.471321
substring	0.321731 -0.364796 0.08151 0.153248 0.326346 0.121738 -0.209646 -0.395876 0.0916475 0.21479 -0.186648 -0.567381
Interface	-0.277222 -0.613364 0.404539 0.202505 -0.0343813 -0.349258 -0.000178833 0.00353378 0.00871217 -0.248442 0.000868123 -0.396607
metadata	-0.306475 -0.366071 0.348363 0.621053 0.0807284 0.0272277 0.282954 -0.329574 0.0212272 -0.250724 0.00933424 -0.0752437
Resource	-0.15918 -0.217292 -0.0808999 0.00579478 -0.081237 -0.518676 -0.439698 0.136026 0.0461086 -0.235667 -0.35818 -0.497441
for	-0.367673 -0.508055 0.0315841 -0.0847798 0.263273 -0.37964 0.203957 -0.337661 0.110774 -0.329456 -0.329265 -0.0152254
i	-0.0559767 -0.0785499 0.0823576 0.516016 -0.0554262 -0.331315 -0.719851 -0.279853 -0.0322641 -0.07962 0.020254 0.0224839
reflect	0.391467 -0.444436 0.00915618 0.226609 0.0403112 -0.0558143 0.0462036 -0.186422 0.374076 -0.314647 0.404461 -0.391973
As	0.169094 -0.0326919 -0.401825 -0.138172 0.358009 -0.513319 0.0477362 -0.204391 0.0120311 -0.52514 0.241218 0.14128
Stack	0.0615041 -0.570728 0.188969 -0.0335916 0.248792 -0.185928 -0.0713267 -0.368771 0.216461 -0.0741545 0.538013 -0.233005
Property	-0.110901 -0.295292 -0.52119 -0.0957795 -0.0295466 -0.523113 -0.465715 -0.000423638 -0.172452 -0.039728 -0.206395 -0.233159
Primordial	-0.0209106 -0.18315 0.0822667 0.376744 -0.329648 -0.240723 -0.125654 -0.317956 0.126442 -0.547866 -0.392886 -0.251615
Input	0.148768 -0.0539575 -0.409312 0.0383639 0.568303 -0.340332 -0.152209 -0.200176 0.235397 -0.364126 0.331241 0.0787225
reverse	0.0723783 -0.258326 -0.279174 -0.0256568 -0.0465107 -0.649507 0.0172071 -0.164875 -0.28118 0.157865 -0.345646 -0.417701
Trace	-0.0533226 -0.291701 -0.503316 0.259565 0.0224487 -0.17795 -0.350738 -0.19462 0.308576 0.000690559 -0.390571 -0.387991
catch	-0.323712 0.0363458 -0.0578035 0.4322 -0.0586929 -0.568298 -0.112662 -0.198632 -0.100868 -0.493617 -0.0459047 0.263168
Application	-0.437216 0.114435 -0.0311428 0.169529 0.341008 0.0326739 -0.613495 -0.1519 -0.051597 -0.432898 -0.197996 -0.141305
load	0.252539 0.0458562 -0.754035 0.293743 0.0357618 -0.403888 -0.0861378 0.0417025 -0.106291 -0.293146 -0.0854265 0.0342623
exc	0.00977833 -0.346593 -0.176057 0.579531 0.00656767 0.0369377 -0.080348 -0.397122 -0.046594 0.124313 0.464789 -0.337198
Exception	-0.0122634 -0.477096 -0.346349 0.342096 -0.0395936 -0.15644 -0.337414 -0.0868278 -0.131303 -0.350216 0.471798 -0.159145
replace	0.244786 0.0542505 -0.457276 0.273584 0.209234 -0.389661 -0.270627 -0.300324 -0.192729 0.185801 -0.0372023 -0.470201
Callable	-0.0360195 -0.12874 -0.296594 0.0676933 0.534888 -0.416899 -0.147599 -0.336763 -0.269812 0.163403 0.435826 -0.0709199
}	0.190253 -0.206149 -0.19043 0.190174 0.770954 -0.212762 -0.260953 0.274539 -0.0446782 -0.182291 -0.142922 -0.100585
Call	0.299832 -0.57931 -0.196207 0.0479573 -0.231886 -0.492628 0.131014 -0.228998 -0.315444 0.0205168 0.257534 -0.0373524
49	-0.357711 -0.77726 -0.0500096 0.219028 -0.15394 -0.00921926 0.0623966 -0.0889844 -0.0500995 -0.38639 -0.0397167 0.168693
52	-0.386631 -0.608618 -0.00320056 -0.0585 -0.0440936 -0.353052 -0.193031 -0.179167 -0.259981 -0.231648 0.276161 0.288442
50	-0.293725 -0.818526 0.0796805 0.205725 0.00177869 -0.0394114 0.151039 -0.0842337 -0.178161 -0.306249 0.046531 0.189498
55	-0.121968 -0.77501 -0.229788 0.30528 0.171879 0.0343747 -0.0313449 -0.0621675 -0.0966433 -0.32672 0.141139 0.258663
56	-0.104408 -0.784086 -0.40204 0.212974 0.130437 -0.00535296 -0.0731711 -0.100713 -0.0940467 -0.0824952 0.267792 0.217741
remove	0.20118 -0.0192743 -0.419505 0.296897 0.343014 -0.395176 -0.179327 -0.412845 -0.0419353 0.245744 -0.136499 -0.371241
53	-0.335861 -0.807363 -0.0129218 0.112966 -0.152128 -0.255763 -0.0979577 -0.159376 -0.223224 -0.104725 0.0705688 0.181945
48	-0.284989 -0.791534 -0.113102 0.174667 -0.134716 -0.098672 -0.0242414 0.00583758 -0.0607858 -0.388106 -0.0649113 0.248825
Query	0.306594 -0.264792 -0.429942 -0.401137 0.338975 -0.0946377 0.0485465 0.153291 -0.377338 -0.409178 -0.0942886 -0.147335
Header	0.134962 -0.193566 -0.303602 -0.270103 0.302736 -0.555034 -0.425599 0.190483 -0.071173 -0.106635 -0.0963547 -0.369239
At	-0.0418487 -0.259296 -0.336014 0.0950528 0.35213 -0.480249 -0.557172 -0.149448 -0.0676394 0.276352 -0.198215 0.037813
C	-0.143837 -0.615763 -0.282957 0.431268 -0.0321349 -0.0820571 -0.32962 -0.00620402 -0.069462 -0.248543 0.240222 -0.305502
switch	0.0177094 -0.046136 -0.0405822 0.491235 -0.183411 -0.248991 -0.206194 0.231237 -0.271188 -0.629634 0.11962 -0.280509
char	0.319986 -0.0706968 -0.36368 0.450725 0.395407 -0.575505 -0.0257992 0.188894 -0.132372 0.0590865 -0.0976492 0.0524102
Names	0.413941 -0.234455 -0.204319 -0.210914 0.0833438 -0.627527 -0.0312126 -0.131945 0.0821901 -0.276658 0.0678698 -0.424772
73	0.0644102 -0.643938 -0.41796 0.406033 0.0869894 -0.114684 -0.0120374 0.0296792 0.0301255 -0.166598 0.3744 0.225962
Values	0.283861 -0.276781 -0.488366 -0.0798144 0.0142407 -0.423181 -0.00282661 -0.135708 0.171499 -0.273169 0.180721 -0.513362
65	-0.0873339 -0.651525 -0.362025 0.419695 0.0126986 0.0262302 -0.119876 -0.0576076 0.0462497 -0.228049 0.375363 0.217026
54	-0.268247 -0.543755 -0.25112 0.514467 0.0363856 -0.0856892 -0.0772985 0.0511938 -0.260856 -0.26162 0.199244 0.333444
86	-0.187715 -0.163876 -0.47803 0.547234 -0.188979 0.0177436 -0.455526 -0.324262 -0.156905 -0.110863 0.126015 0.0919896
51	-0.195437 -0.887802 0.0703035 0.280549 0.0155742 0.0184895 0.0300421 -0.0668819 -0.149777 -0.166211 0.0378396 0.180308
Batch	0.0433908 -0.428006 -0.370412 -0.138227 0.136915 -0.712071 -0.253619 -0.138781 0.153484 0.0223602 0.149935 0.0520064
Headers	-0.0077099 -0.32154 -0.56407 -0.0802557 0.0615758 -0.57752 -0.304266 0.07418 -0.13582 0.039249 -0.104414 -0.325031
Set	0.0637729 -0.0751517 -0.0388064 0.290569 -0.169099 -0.578109 -0.237112 0.14399 -0.204217 -0.152788 0.572358 -0.268231
Result	-0.181912 0.121275 -0.454592 0.128484 0.14786 -0.470633 -0.286722 -0.326155 -0.189691 -0.0312141 0.508537 -0.0390762
59	-0.311966 -0.821127 -0.301115 0.127265 -0.0717036 -0.0708496 -0.166263 -0.0675577 -0.0369995 -0.139896 0.0711506 0.230631
66	-0.244763 -0.592854 0.085608 0.382206 0.211183 -0.312287 0.105162 0.0241014 -0.104444 -0.37422 0.24131 0.26882
58	-0.233875 -0.562633 -0.206037 0.262943 0.026841 0.167238 -0.00645083 -0.0540072 0.0723931 -0.615731 0.188845 0.25589
72	-0.0989216 -0.625712 -0.214393 0.311411 0.00812822 -0.357876 0.031145 0.029249 -0.0971964 -0.36083 0.268603 0.337636
is	-0.0853243 -0.0853801 -0.0426609 0.657126 0.152925 -0.331969 0.061252 0.0390467 -0.0647038 0.0297976 -0.551938 -0.321279
Empty	-0.191465 -0.102098 -0.621427 -0.0332979 0.154905 -0.255364 -0.574765 -0.277091 0.00693809 -0.116683 -0.23575 0.00734346
60	-0.0819812 -0.661215 -0.295665 0.424348 0.151538 -0.0869096 0.0109992 0.0379672 -0.0264312 -0.246002 0.318913 0.305915
57	-0.308666 -0.78465 -0.411241 0.166533 0.0431958 -0.100174 -0.161213 -0.0216822 -0.138074 0.0139543 0.0580131 0.176669
this	0.144602 -0.256019 0.185477 0.489754 -0.354209 -0.635861 -0.095236 -0.0787017 -0.239107 0.0168999 -0.187971 -0.0380281
67	-0.177794 -0.652754 0.0459433 0.379605 0.167129 -0.40164 0.120684 0.0287132 -0.103813 -0.255993 0.237377 0.242482
html	-0.281241 -0.250364 -0.276433 0.418229 0.438386 -0.354674 0.0318003 -0.146479 0.353333 -0.18238 -0.317586 0.08649
Escape	-0.133122 -0.146915 -0.250616 -0.464631 -0.0760736 -0.348108 -0.465551 -0.299286 -0.364174 -0.172742 0.179037 -0.232835
61	-0.341372 -0.762444 0.0865039 0.380518 0.0755661 -0.0630383 0.125326 -0.000750925 -0.0855921 -0.277663 0.0846004 0.181371
s	0.239966 0.0750557 -0.38626 0.438244 0.0338613 -0.366282 -0.528398 -0.23558 0.278771 -0.0793852 0.203408 0.0112579
Cookie	-0.231958 -0.351029 -0.147662 0.166664 -0.331946 -0.104094 -0.177821 -0.128691 -0.407736 -0.626701 0.210844 0.027031
>=	-0.242554 -0.329697 -0.248816 0.206283 -0.29935 0.193356 0.341564 -0.283376 -0.206984 -0.380722 0.108215 -0.452259
equal	-0.155787 0.369979 0.049564 0.0725873 0.134986 -0.423493 -0.583948 -0.0619046 -0.120829 -0.149211 0.178136 -0.46918
Cookies	-0.0520329 -0.232395 -0.579999 -0.0607577 -0.102462 -0.479368 -0.459917 0.1202 -0.165805 -0.159833 -0.203635 -0.205974
escape	0.0680022 -0.535626 -0.123878 0.409442 0.244658 -0.51829 0.149653 -0.172292 -0.0306357 0.377791 0.0245723 0.0257232
Html	0.121929 0.100414 -0.405499 -0.164082 -0.0804375 -0.319556 -0.576349 0.036754 -0.177158 -0.323687 0.317227 -0.323716
63	-0.242496 -0.729474 -0.229124 0.32593 -0.097047 -0.220316 -0.103699 -0.0739411 -0.0886638 -0.02637 0.342154 0.224789
74	-0.124143 -0.653583 0.0270089 0.31521 -0.144376 -0.255691 0.127672 0.00571402 -0.285948 -0.38495 0.197146 0.293182
75	-0.255381 -0.781964 -0.0953908 -0.0320919 -0.114062 -0.282721 -0.131331 -0.154541 -0.135234 -0.210802 0.201232 0.275483
78	-0.177959 -0.599974 -0.172992 0.350806 -0.0110061 -0.166433 0.00939307 0.0395757 -0.330759 -0.409872 0.150049 0.354942
87	0.0887999 -0.528847 -0.547384 0.224748 0.148148 0.084208 -0.126943 -0.0577199 0.092959 -0.423252 0.291106 0.203182
76	-0.0907348 -0.755831 -0.148299 -0.0340526 -0.0792102 -0.172897 -0.0435435 -0.0983897 -0.166681 -0.465416 0.0710324 0.316464
esapi	-0.218231 0.179825 0.402703 0.575661 0.172939 -0.429464 0.0974535 -0.158679 -0.147383 -0.322686 0.119523 -0.193197
r	0.107504 -0.818301 -0.268303 0.103289 0.103255 -0.0875939 -0.0713102 -0.165548 0.27447 0.245665 0.123042 -0.185796
HTML	0.192377 -0.655048 -0.243771 -0.112908 0.14823 -0.419961 0.0553634 -0.146819 0.0121597 0.279162 0.101519 -0.387795
For	-0.0863262 -0.549421 -0.0504915 0.413826 0.210534 -0.219757 -0.03423 -0.0165423 0.367789 0.0912122 0.385993 -0.360888
71	-0.0563646 -0.578713 -0.168359 0.38409 0.042371 -0.268535 0.0700696 0.0636404 -0.155246 -0.431577 0.267767 0.34802
62	-0.159548 -0.609857 -0.216426 0.455088 0.156236 -0.0343697 -0.02548 0.0304894 -0.0883551 -0.311048 0.330597 0.328103
69	-0.0455838 -0.608497 -0.303617 0.272111 0.105166 -0.168379 -0.0118146 -0.0461245 0.127547 -0.415592 0.382644 0.290423
79	-0.0368841 -0.690283 -0.341377 0.356807 0.0970967 -0.136192 0.0504293 0.0351491 -0.171822 -0.217628 0.302258 0.279823
77	-0.191627 -0.707923 -0.183896 0.144961 -0.0372096 -0.230821 -0.178012 -0.0319183 -0.202791 -0.360605 0.0975815 0.37315
68	-0.237926 -0.678513 0.0412753 0.251725 0.102205 -0.368552 0.130807 -0.0134657 -0.0958428 -0.35909 0.219959 0.260502
91	0.106262 -0.531033 -0.544148 0.287591 0.0866685 0.113503 -0.0883585 -0.0739373 -0.0391828 -0.288208 0.424499 0.171582
70	-0.168301 -0.577927 -0.201692 0.248977 -0.075111 -0.421776 -0.0938282 -0.065611 -0.00562594 -0.364833 0.332443 0.307747
81	-0.124435 -0.689131 -0.268212 0.0985468 -0.0188527 0.031404 -0.0580106 -0.100442 -0.383575 -0.31609 0.261453 0.312683
82	-0.311016 -0.617148 -0.0056156 0.209901 -0.14835 -0.176879 0.0332255 -0.0164103 -0.294837 -0.475604 0.158547 0.292191
80	-0.233801 -0.576021 -0.264208 0.142384 -0.0588044 -0.252166 0.273266 -0.0534257 -0.407418 -0.394012 0.17367 0.165796
83	-0.310256 -0.586089 0.118289 0.216734 -0.0974602 -0.207935 0.0226869 -0.103865 -0.259978 -0.440327 0.289949 0.299485
84	-0.281775 -0.521236 -0.209795 0.420497 -0.0980779 -0.0107464 -0.00584779 0.00477049 -0.161827 -0.488484 0.245033 0.30569
89	-0.0326928 -0.661548 -0.35869 0.387068 0.0692759 0.167571 -0.109378 -0.000536261 -0.0318558 -0.362309 0.274363 0.174368
93	0.018581 -0.652549 -0.300469 0.362287 -0.0437794 0.215971 -0.100982 -0.0960591 -0.0851623 -0.395653 0.286207 0.196489
94	0.13819 -0.619559 -0.345184 0.41468 -0.0212502 0.0893978 -0.112526 -0.0996757 0.050076 -0.290611 0.39075 0.187749
85	-0.306578 -0.671894 -0.186833 0.284758 0.158004 -0.236745 0.181979 0.00128097 -0.0631188 -0.322157 0.269352 0.210057
96	0.230461 -0.501056 -0.347081 0.432994 0.0757181 0.135663 -0.221354 0.0242403 0.204996 -0.362097 0.374328 0.0299897
90	-0.218409 -0.660176 -0.199818 0.24981 -0.0433951 -0.105122 0.0453608 0.109952 -0.355712 -0.423028 -0.0184256 0.285005
88	-0.213829 -0.737697 -0.100332 0.143027 -0.154354 -0.220587 -0.161489 -0.0403156 0.0293415 -0.400045 0.171132 0.29864
92	-0.167647 -0.883224 -0.0484441 0.0445837 -0.0530511 -0.288492 0.147599 -0.00607024 -0.163121 -0.152919 0.107674 0.134255
95	0.276308 -0.572422 -0.458185 0.36955 0.0275085 0.124608 -0.180019 0.00612281 0.143762 -0.178357 0.375678 -0.08453
97	-0.157693 0.039273 -0.272636 0.230827 -0.159969 -0.259211 -0.169673 0.219843 -0.512574 -0.607621 -0.187084 -0.0956206
